{
    "users": [
        {
            "name": "Elliot",
            "type": "Reader",
            "age": 23,
            "social": {
                "facebook": "https://facebook.com",
                "twitter": "https://twitter.com"
            }
        },
        {
            "name": "Jaroslav",
            "type": "Reader",
            "age": 45,
            "social": {
                "facebook": "https://facebook.com",
                "twitter": "https://twitter.com"
            }
        },
        {
            "name": "Tereza",
            "type": "Author",
            "age": 25,
            "social": {
                "facebook": "https://facebook.com",
                "twitter": "https://twitter.com"
            }
        },
        {
            "name": "Fraser",
            "type": "Author",
            "age": 17,
            "social": {
                "facebook": "https://facebook.com",
                "twitter": "https://twitter.com"
            }
        }
    ]
}